remaining unclicked=480remaining mines=99Printing board: w=30 h=16. . . . . . . . . . . . . . . . . . . . . . . . . . . . . . 
. . . . . . . . . . . . . . . . . . . . . . . . . . . . . . 
. . . . . . . . . . . . . . . . . . . . . . . . . . . . . . 
. . . . . . . . . . . . . . . . . . . . . . . . . . . . . . 
. . . . . . . . . . . . . . . . . . . . . . . . . . . . . . 
. . . . . . . . . . . . . . . . . . . . . . . . . . . . . . 
. . . . . . . . . . . . . . . . . . . . . . . . . . . . . . 
. . . . . . . . . . . . . . . . . . . . . . . . . . . . . . 
. . . . . . . . . . . . . . . . . . . . . . . . . . . . . . 
. . . . . . . . . . . . . . . . . . . . . . . . . . . . . . 
. . . . . . . . . . . . . . . . . . . . . . . . . . . . . . 
. . . . . . . . . . . . . . . . . . . . . . . . . . . . . . 
. . . . . . . . . . . . . . . . . . . . . . . . . . . . . . 
. . . . . . . . . . . . . . . . . . . . . . . . . . . . . . 
. . . . . . . . . . . . . . . . . . . . . . . . . . . . . . 
. . . . . . . . . . . . . . . . . . . . . . . . . . . . . . 

Probabilities:
 0.21  0.21  0.21  0.21  0.21  0.21  0.21  0.21  0.21  0.21  0.21  0.21  0.21  0.21  0.21  0.21  0.21  0.21  0.21  0.21  0.21  0.21  0.21  0.21  0.21  0.21  0.21  0.21  0.21  0.21 
 0.21  0.21  0.21  0.21  0.21  0.21  0.21  0.21  0.21  0.21  0.21  0.21  0.21  0.21  0.21  0.21  0.21  0.21  0.21  0.21  0.21  0.21  0.21  0.21  0.21  0.21  0.21  0.21  0.21  0.21 
 0.21  0.21  0.21  0.21  0.21  0.21  0.21  0.21  0.21  0.21  0.21  0.21  0.21  0.21  0.21  0.21  0.21  0.21  0.21  0.21  0.21  0.21  0.21  0.21  0.21  0.21  0.21  0.21  0.21  0.21 
 0.21  0.21  0.21  0.21  0.21  0.21  0.21  0.21  0.21  0.21  0.21  0.21  0.21  0.21  0.21  0.21  0.21  0.21  0.21  0.21  0.21  0.21  0.21  0.21  0.21  0.21  0.21  0.21  0.21  0.21 
 0.21  0.21  0.21  0.21  0.21  0.21  0.21  0.21  0.21  0.21  0.21  0.21  0.21  0.21  0.21  0.21  0.21  0.21  0.21  0.21  0.21  0.21  0.21  0.21  0.21  0.21  0.21  0.21  0.21  0.21 
 0.21  0.21  0.21  0.21  0.21  0.21  0.21  0.21  0.21  0.21  0.21  0.21  0.21  0.21  0.21  0.21  0.21  0.21  0.21  0.21  0.21  0.21  0.21  0.21  0.21  0.21  0.21  0.21  0.21  0.21 
 0.21  0.21  0.21  0.21  0.21  0.21  0.21  0.21  0.21  0.21  0.21  0.21  0.21  0.21  0.21  0.21  0.21  0.21  0.21  0.21  0.21  0.21  0.21  0.21  0.21  0.21  0.21  0.21  0.21  0.21 
 0.21  0.21  0.21  0.21  0.21  0.21  0.21  0.21  0.21  0.21  0.21  0.21  0.21  0.21  0.21  0.21  0.21  0.21  0.21  0.21  0.21  0.21  0.21  0.21  0.21  0.21  0.21  0.21  0.21  0.21 
 0.21  0.21  0.21  0.21  0.21  0.21  0.21  0.21  0.21  0.21  0.21  0.21  0.21  0.21  0.21  0.21  0.21  0.21  0.21  0.21  0.21  0.21  0.21  0.21  0.21  0.21  0.21  0.21  0.21  0.21 
 0.21  0.21  0.21  0.21  0.21  0.21  0.21  0.21  0.21  0.21  0.21  0.21  0.21  0.21  0.21  0.21  0.21  0.21  0.21  0.21  0.21  0.21  0.21  0.21  0.21  0.21  0.21  0.21  0.21  0.21 
 0.21  0.21  0.21  0.21  0.21  0.21  0.21  0.21  0.21  0.21  0.21  0.21  0.21  0.21  0.21  0.21  0.21  0.21  0.21  0.21  0.21  0.21  0.21  0.21  0.21  0.21  0.21  0.21  0.21  0.21 
 0.21  0.21  0.21  0.21  0.21  0.21  0.21  0.21  0.21  0.21  0.21  0.21  0.21  0.21  0.21  0.21  0.21  0.21  0.21  0.21  0.21  0.21  0.21  0.21  0.21  0.21  0.21  0.21  0.21  0.21 
 0.21  0.21  0.21  0.21  0.21  0.21  0.21  0.21  0.21  0.21  0.21  0.21  0.21  0.21  0.21  0.21  0.21  0.21  0.21  0.21  0.21  0.21  0.21  0.21  0.21  0.21  0.21  0.21  0.21  0.21 
 0.21  0.21  0.21  0.21  0.21  0.21  0.21  0.21  0.21  0.21  0.21  0.21  0.21  0.21  0.21  0.21  0.21  0.21  0.21  0.21  0.21  0.21  0.21  0.21  0.21  0.21  0.21  0.21  0.21  0.21 
 0.21  0.21  0.21  0.21  0.21  0.21  0.21  0.21  0.21  0.21  0.21  0.21  0.21  0.21  0.21  0.21  0.21  0.21  0.21  0.21  0.21  0.21  0.21  0.21  0.21  0.21  0.21  0.21  0.21  0.21 
 0.21  0.21  0.21  0.21  0.21  0.21  0.21  0.21  0.21  0.21  0.21  0.21  0.21  0.21  0.21  0.21  0.21  0.21  0.21  0.21  0.21  0.21  0.21  0.21  0.21  0.21  0.21  0.21  0.21  0.21 

