remaining unclicked=479remaining mines=99Printing board: w=30 h=16
1 . . . . . . . . . . . . . . . . . . . . . . . . . . . . . 
. . . . . . . . . . . . . . . . . . . . . . . . . . . . . . 
. . . . . . . . . . . . . . . . . . . . . . . . . . . . . . 
. . . . . . . . . . . . . . . . . . . . . . . . . . . . . . 
. . . . . . . . . . . . . . . . . . . . . . . . . . . . . . 
. . . . . . . . . . . . . . . . . . . . . . . . . . . . . . 
. . . . . . . . . . . . . . . . . . . . . . . . . . . . . . 
. . . . . . . . . . . . . . . . . . . . . . . . . . . . . . 
. . . . . . . . . . . . . . . . . . . . . . . . . . . . . . 
. . . . . . . . . . . . . . . . . . . . . . . . . . . . . . 
. . . . . . . . . . . . . . . . . . . . . . . . . . . . . . 
. . . . . . . . . . . . . . . . . . . . . . . . . . . . . . 
. . . . . . . . . . . . . . . . . . . . . . . . . . . . . . 
. . . . . . . . . . . . . . . . . . . . . . . . . . . . . . 
. . . . . . . . . . . . . . . . . . . . . . . . . . . . . . 
. . . . . . . . . . . . . . . . . . . . . . . . . . . . . . 

Probabilities:
-1.00  0.33  0.21  0.21  0.21  0.21  0.21  0.21  0.21  0.21  0.21  0.21  0.21  0.21  0.21  0.21  0.21  0.21  0.21  0.21  0.21  0.21  0.21  0.21  0.21  0.21  0.21  0.21  0.21  0.21 
 0.33  0.33  0.21  0.21  0.21  0.21  0.21  0.21  0.21  0.21  0.21  0.21  0.21  0.21  0.21  0.21  0.21  0.21  0.21  0.21  0.21  0.21  0.21  0.21  0.21  0.21  0.21  0.21  0.21  0.21 
 0.21  0.21  0.21  0.21  0.21  0.21  0.21  0.21  0.21  0.21  0.21  0.21  0.21  0.21  0.21  0.21  0.21  0.21  0.21  0.21  0.21  0.21  0.21  0.21  0.21  0.21  0.21  0.21  0.21  0.21 
 0.21  0.21  0.21  0.21  0.21  0.21  0.21  0.21  0.21  0.21  0.21  0.21  0.21  0.21  0.21  0.21  0.21  0.21  0.21  0.21  0.21  0.21  0.21  0.21  0.21  0.21  0.21  0.21  0.21  0.21 
 0.21  0.21  0.21  0.21  0.21  0.21  0.21  0.21  0.21  0.21  0.21  0.21  0.21  0.21  0.21  0.21  0.21  0.21  0.21  0.21  0.21  0.21  0.21  0.21  0.21  0.21  0.21  0.21  0.21  0.21 
 0.21  0.21  0.21  0.21  0.21  0.21  0.21  0.21  0.21  0.21  0.21  0.21  0.21  0.21  0.21  0.21  0.21  0.21  0.21  0.21  0.21  0.21  0.21  0.21  0.21  0.21  0.21  0.21  0.21  0.21 
 0.21  0.21  0.21  0.21  0.21  0.21  0.21  0.21  0.21  0.21  0.21  0.21  0.21  0.21  0.21  0.21  0.21  0.21  0.21  0.21  0.21  0.21  0.21  0.21  0.21  0.21  0.21  0.21  0.21  0.21 
 0.21  0.21  0.21  0.21  0.21  0.21  0.21  0.21  0.21  0.21  0.21  0.21  0.21  0.21  0.21  0.21  0.21  0.21  0.21  0.21  0.21  0.21  0.21  0.21  0.21  0.21  0.21  0.21  0.21  0.21 
 0.21  0.21  0.21  0.21  0.21  0.21  0.21  0.21  0.21  0.21  0.21  0.21  0.21  0.21  0.21  0.21  0.21  0.21  0.21  0.21  0.21  0.21  0.21  0.21  0.21  0.21  0.21  0.21  0.21  0.21 
 0.21  0.21  0.21  0.21  0.21  0.21  0.21  0.21  0.21  0.21  0.21  0.21  0.21  0.21  0.21  0.21  0.21  0.21  0.21  0.21  0.21  0.21  0.21  0.21  0.21  0.21  0.21  0.21  0.21  0.21 
 0.21  0.21  0.21  0.21  0.21  0.21  0.21  0.21  0.21  0.21  0.21  0.21  0.21  0.21  0.21  0.21  0.21  0.21  0.21  0.21  0.21  0.21  0.21  0.21  0.21  0.21  0.21  0.21  0.21  0.21 
 0.21  0.21  0.21  0.21  0.21  0.21  0.21  0.21  0.21  0.21  0.21  0.21  0.21  0.21  0.21  0.21  0.21  0.21  0.21  0.21  0.21  0.21  0.21  0.21  0.21  0.21  0.21  0.21  0.21  0.21 
 0.21  0.21  0.21  0.21  0.21  0.21  0.21  0.21  0.21  0.21  0.21  0.21  0.21  0.21  0.21  0.21  0.21  0.21  0.21  0.21  0.21  0.21  0.21  0.21  0.21  0.21  0.21  0.21  0.21  0.21 
 0.21  0.21  0.21  0.21  0.21  0.21  0.21  0.21  0.21  0.21  0.21  0.21  0.21  0.21  0.21  0.21  0.21  0.21  0.21  0.21  0.21  0.21  0.21  0.21  0.21  0.21  0.21  0.21  0.21  0.21 
 0.21  0.21  0.21  0.21  0.21  0.21  0.21  0.21  0.21  0.21  0.21  0.21  0.21  0.21  0.21  0.21  0.21  0.21  0.21  0.21  0.21  0.21  0.21  0.21  0.21  0.21  0.21  0.21  0.21  0.21 
 0.21  0.21  0.21  0.21  0.21  0.21  0.21  0.21  0.21  0.21  0.21  0.21  0.21  0.21  0.21  0.21  0.21  0.21  0.21  0.21  0.21  0.21  0.21  0.21  0.21  0.21  0.21  0.21  0.21  0.21 

