remaining unclicked=25
remaining mines=6
Printing board: w=30 h=16
1 ! 1 0 0 0 0 0 0 0 0 0 0 0 0 0 1 2 . . . . . . . 1 0 0 0 0 
1 1 1 0 0 1 1 1 1 2 2 1 0 0 0 0 1 ! . . . . . . . 3 3 2 2 1 
0 0 0 0 0 1 ! 1 1 ! ! 2 0 0 0 0 2 3 . . . . . ! 4 ! ! ! 2 ! 
0 0 0 0 1 2 2 1 2 4 ! 3 2 1 1 1 3 ! . . . . ! ! 3 2 4 4 5 3 
0 0 1 2 3 ! 2 2 3 ! 4 ! 3 ! 3 2 ! ! ! 3 . 4 ! 3 1 0 1 ! ! ! 
0 0 1 ! ! 5 ! 3 ! ! 4 1 3 ! 3 ! 4 4 3 4 . 4 2 1 0 1 2 4 5 4 
0 0 1 2 3 ! ! 3 3 ! 3 1 2 3 5 4 ! 1 2 ! ! ! 1 0 0 1 ! 2 ! ! 
0 0 1 1 2 2 2 1 1 2 ! 1 1 ! ! ! 2 1 2 ! ! 3 1 0 0 1 2 3 4 ! 
0 0 1 ! 2 1 2 1 1 1 1 1 1 2 4 3 2 1 2 3 2 1 0 0 0 1 3 ! 3 1 
1 1 3 2 3 ! 4 ! 2 1 1 2 1 1 1 ! 2 2 ! 1 0 0 0 1 2 3 ! ! 3 1 
1 ! 2 ! 2 2 ! ! 2 2 ! 5 ! 2 2 3 ! 3 2 2 0 0 0 1 ! ! 3 3 ! 1 
1 1 2 1 2 2 3 2 1 2 ! ! ! 2 1 ! 2 2 ! 1 0 1 1 3 3 3 1 1 2 2 
1 1 2 1 3 ! 2 0 0 1 2 3 2 1 1 1 1 2 3 3 1 1 ! 2 ! 1 0 0 1 ! 
2 ! 5 ! 5 ! 2 0 0 0 0 0 0 0 1 2 2 3 ! ! 1 2 2 4 2 3 1 1 1 1 
2 ! ! ! ! 3 2 1 0 0 0 0 0 0 1 ! ! 3 ! 3 1 1 ! 2 ! 2 ! 1 1 1 
1 2 3 3 2 2 ! 1 0 0 0 0 0 0 1 2 2 2 1 1 0 1 1 2 1 2 1 1 1 ! 

Probabilities:
-1.00 -1.00 -1.00 -1.00 -1.00 -1.00 -1.00 -1.00 -1.00 -1.00 -1.00 -1.00 -1.00 -1.00 -1.00 -1.00 -1.00 -1.00  0.50  0.12  0.12  0.12  0.12  0.12  0.50 -1.00 -1.00 -1.00 -1.00 -1.00 
-1.00 -1.00 -1.00 -1.00 -1.00 -1.00 -1.00 -1.00 -1.00 -1.00 -1.00 -1.00 -1.00 -1.00 -1.00 -1.00 -1.00 -1.00  0.50  0.12  0.12  0.12  0.12  0.50  0.50 -1.00 -1.00 -1.00 -1.00 -1.00 
-1.00 -1.00 -1.00 -1.00 -1.00 -1.00 -1.00 -1.00 -1.00 -1.00 -1.00 -1.00 -1.00 -1.00 -1.00 -1.00 -1.00 -1.00  0.33  0.12  0.12  0.12  0.12 -1.00 -1.00 -1.00 -1.00 -1.00 -1.00 -1.00 
-1.00 -1.00 -1.00 -1.00 -1.00 -1.00 -1.00 -1.00 -1.00 -1.00 -1.00 -1.00 -1.00 -1.00 -1.00 -1.00 -1.00 -1.00  0.40  0.40  0.50  0.50 -1.00 -1.00 -1.00 -1.00 -1.00 -1.00 -1.00 -1.00 
-1.00 -1.00 -1.00 -1.00 -1.00 -1.00 -1.00 -1.00 -1.00 -1.00 -1.00 -1.00 -1.00 -1.00 -1.00 -1.00 -1.00 -1.00 -1.00 -1.00  0.50 -1.00 -1.00 -1.00 -1.00 -1.00 -1.00 -1.00 -1.00 -1.00 
-1.00 -1.00 -1.00 -1.00 -1.00 -1.00 -1.00 -1.00 -1.00 -1.00 -1.00 -1.00 -1.00 -1.00 -1.00 -1.00 -1.00 -1.00 -1.00 -1.00  0.50 -1.00 -1.00 -1.00 -1.00 -1.00 -1.00 -1.00 -1.00 -1.00 
-1.00 -1.00 -1.00 -1.00 -1.00 -1.00 -1.00 -1.00 -1.00 -1.00 -1.00 -1.00 -1.00 -1.00 -1.00 -1.00 -1.00 -1.00 -1.00 -1.00 -1.00 -1.00 -1.00 -1.00 -1.00 -1.00 -1.00 -1.00 -1.00 -1.00 
-1.00 -1.00 -1.00 -1.00 -1.00 -1.00 -1.00 -1.00 -1.00 -1.00 -1.00 -1.00 -1.00 -1.00 -1.00 -1.00 -1.00 -1.00 -1.00 -1.00 -1.00 -1.00 -1.00 -1.00 -1.00 -1.00 -1.00 -1.00 -1.00 -1.00 
-1.00 -1.00 -1.00 -1.00 -1.00 -1.00 -1.00 -1.00 -1.00 -1.00 -1.00 -1.00 -1.00 -1.00 -1.00 -1.00 -1.00 -1.00 -1.00 -1.00 -1.00 -1.00 -1.00 -1.00 -1.00 -1.00 -1.00 -1.00 -1.00 -1.00 
-1.00 -1.00 -1.00 -1.00 -1.00 -1.00 -1.00 -1.00 -1.00 -1.00 -1.00 -1.00 -1.00 -1.00 -1.00 -1.00 -1.00 -1.00 -1.00 -1.00 -1.00 -1.00 -1.00 -1.00 -1.00 -1.00 -1.00 -1.00 -1.00 -1.00 
-1.00 -1.00 -1.00 -1.00 -1.00 -1.00 -1.00 -1.00 -1.00 -1.00 -1.00 -1.00 -1.00 -1.00 -1.00 -1.00 -1.00 -1.00 -1.00 -1.00 -1.00 -1.00 -1.00 -1.00 -1.00 -1.00 -1.00 -1.00 -1.00 -1.00 
-1.00 -1.00 -1.00 -1.00 -1.00 -1.00 -1.00 -1.00 -1.00 -1.00 -1.00 -1.00 -1.00 -1.00 -1.00 -1.00 -1.00 -1.00 -1.00 -1.00 -1.00 -1.00 -1.00 -1.00 -1.00 -1.00 -1.00 -1.00 -1.00 -1.00 
-1.00 -1.00 -1.00 -1.00 -1.00 -1.00 -1.00 -1.00 -1.00 -1.00 -1.00 -1.00 -1.00 -1.00 -1.00 -1.00 -1.00 -1.00 -1.00 -1.00 -1.00 -1.00 -1.00 -1.00 -1.00 -1.00 -1.00 -1.00 -1.00 -1.00 
-1.00 -1.00 -1.00 -1.00 -1.00 -1.00 -1.00 -1.00 -1.00 -1.00 -1.00 -1.00 -1.00 -1.00 -1.00 -1.00 -1.00 -1.00 -1.00 -1.00 -1.00 -1.00 -1.00 -1.00 -1.00 -1.00 -1.00 -1.00 -1.00 -1.00 
-1.00 -1.00 -1.00 -1.00 -1.00 -1.00 -1.00 -1.00 -1.00 -1.00 -1.00 -1.00 -1.00 -1.00 -1.00 -1.00 -1.00 -1.00 -1.00 -1.00 -1.00 -1.00 -1.00 -1.00 -1.00 -1.00 -1.00 -1.00 -1.00 -1.00 
-1.00 -1.00 -1.00 -1.00 -1.00 -1.00 -1.00 -1.00 -1.00 -1.00 -1.00 -1.00 -1.00 -1.00 -1.00 -1.00 -1.00 -1.00 -1.00 -1.00 -1.00 -1.00 -1.00 -1.00 -1.00 -1.00 -1.00 -1.00 -1.00 -1.00 

