remaining unclicked=414
remaining mines=92
Printing board: w=30 h=16
0 0 0 1 2 3 . 2 . . . . . . . . . . . . . . . . . . . . . . 
0 0 0 1 ! ! . . . . . . . . . . . . . . . . . . . . . . . . 
0 0 0 1 2 4 ! . . . . . . . . . . . . . . . . . . . . . . . 
0 0 0 0 0 2 . . . . . . . . . . . . . . . . . . . . . . . . 
0 0 0 0 0 1 . . . . . . . . . . . . . . . . . . . . . . . . 
0 1 1 1 0 1 2 . . . . . . . . . . . . . . . . . . . . . . . 
0 1 ! 1 0 1 . . . . . . . . . . . . . . . . . . . . . . . . 
0 1 1 2 1 2 . 2 . . . . . . . . . . . . . . . . . . . . . . 
1 2 1 2 ! 2 1 2 . . . . . . . . . . . . . . . . . . . . . . 
! 3 ! 3 3 . . 3 . . . . . . . . . . . . . . . . . . . . . . 
. . . . . . . . . . . . . . . . . . . . . . . . . . . . . . 
. . . . . . . . . . . . . . . . . . . . . . . . . . . . . . 
. . . . . . . . . . . . . . . . . . . . . . . . . . . . . . 
. . . . . . . . . . . . . . . . . . . . . . . . . . . . . . 
. . . . . . . . . . . . . . . . . . . . . . . . . . . . . . 
. . . . . . . . . . . . . . . . . . . . . . . . . . . . . . 

Probabilities:
-1.00 -1.00 -1.00 -1.00 -1.00 -1.00  0.50 -1.00  0.40  0.21  0.21  0.21  0.21  0.21  0.21  0.21  0.21  0.21  0.21  0.21  0.21  0.21  0.21  0.21  0.21  0.21  0.21  0.21  0.21  0.21 
-1.00 -1.00 -1.00 -1.00 -1.00 -1.00  0.50  0.40  0.40  0.21  0.21  0.21  0.21  0.21  0.21  0.21  0.21  0.21  0.21  0.21  0.21  0.21  0.21  0.21  0.21  0.21  0.21  0.21  0.21  0.21 
-1.00 -1.00 -1.00 -1.00 -1.00 -1.00 -1.00  0.21  0.21  0.21  0.21  0.21  0.21  0.21  0.21  0.21  0.21  0.21  0.21  0.21  0.21  0.21  0.21  0.21  0.21  0.21  0.21  0.21  0.21  0.21 
-1.00 -1.00 -1.00 -1.00 -1.00 -1.00  0.50  0.21  0.21  0.21  0.21  0.21  0.21  0.21  0.21  0.21  0.21  0.21  0.21  0.21  0.21  0.21  0.21  0.21  0.21  0.21  0.21  0.21  0.21  0.21 
-1.00 -1.00 -1.00 -1.00 -1.00 -1.00  0.50  0.40  0.21  0.21  0.21  0.21  0.21  0.21  0.21  0.21  0.21  0.21  0.21  0.21  0.21  0.21  0.21  0.21  0.21  0.21  0.21  0.21  0.21  0.21 
-1.00 -1.00 -1.00 -1.00 -1.00 -1.00 -1.00  0.40  0.21  0.21  0.21  0.21  0.21  0.21  0.21  0.21  0.21  0.21  0.21  0.21  0.21  0.21  0.21  0.21  0.21  0.21  0.21  0.21  0.21  0.21 
-1.00 -1.00 -1.00 -1.00 -1.00 -1.00  0.50  0.40  0.33  0.21  0.21  0.21  0.21  0.21  0.21  0.21  0.21  0.21  0.21  0.21  0.21  0.21  0.21  0.21  0.21  0.21  0.21  0.21  0.21  0.21 
-1.00 -1.00 -1.00 -1.00 -1.00 -1.00  0.50 -1.00  0.40  0.21  0.21  0.21  0.21  0.21  0.21  0.21  0.21  0.21  0.21  0.21  0.21  0.21  0.21  0.21  0.21  0.21  0.21  0.21  0.21  0.21 
-1.00 -1.00 -1.00 -1.00 -1.00 -1.00 -1.00 -1.00  0.50  0.21  0.21  0.21  0.21  0.21  0.21  0.21  0.21  0.21  0.21  0.21  0.21  0.21  0.21  0.21  0.21  0.21  0.21  0.21  0.21  0.21 
-1.00 -1.00 -1.00 -1.00 -1.00  0.50  0.50 -1.00  0.50  0.21  0.21  0.21  0.21  0.21  0.21  0.21  0.21  0.21  0.21  0.21  0.21  0.21  0.21  0.21  0.21  0.21  0.21  0.21  0.21  0.21 
 0.33  0.33  0.33  0.50  0.50  0.50  0.50  0.50  0.50  0.21  0.21  0.21  0.21  0.21  0.21  0.21  0.21  0.21  0.21  0.21  0.21  0.21  0.21  0.21  0.21  0.21  0.21  0.21  0.21  0.21 
 0.21  0.21  0.21  0.21  0.21  0.21  0.21  0.21  0.21  0.21  0.21  0.21  0.21  0.21  0.21  0.21  0.21  0.21  0.21  0.21  0.21  0.21  0.21  0.21  0.21  0.21  0.21  0.21  0.21  0.21 
 0.21  0.21  0.21  0.21  0.21  0.21  0.21  0.21  0.21  0.21  0.21  0.21  0.21  0.21  0.21  0.21  0.21  0.21  0.21  0.21  0.21  0.21  0.21  0.21  0.21  0.21  0.21  0.21  0.21  0.21 
 0.21  0.21  0.21  0.21  0.21  0.21  0.21  0.21  0.21  0.21  0.21  0.21  0.21  0.21  0.21  0.21  0.21  0.21  0.21  0.21  0.21  0.21  0.21  0.21  0.21  0.21  0.21  0.21  0.21  0.21 
 0.21  0.21  0.21  0.21  0.21  0.21  0.21  0.21  0.21  0.21  0.21  0.21  0.21  0.21  0.21  0.21  0.21  0.21  0.21  0.21  0.21  0.21  0.21  0.21  0.21  0.21  0.21  0.21  0.21  0.21 
 0.21  0.21  0.21  0.21  0.21  0.21  0.21  0.21  0.21  0.21  0.21  0.21  0.21  0.21  0.21  0.21  0.21  0.21  0.21  0.21  0.21  0.21  0.21  0.21  0.21  0.21  0.21  0.21  0.21  0.21 

