remaining unclicked=480
remaining mines=99
Printing board: w=30 h=16
. . . . . . . . . . . . . . . . . . . . . . . . . . . . . . 
. . . . . . . . . . . . . . . . . . . . . . . . . . . . . . 
. . . . . . . . . . . . . . . . . . . . . . . . . . . . . . 
. . . . . . . . . . . . . . . . . . . . . . . . . . . . . . 
. . . . . . . . . . . . . . . . . . . . . . . . . . . . . . 
. . . . . . . . . . . . . . . . . . . . . . . . . . . . . . 
. . . . . . . . . . . . . . . . . . . . . . . . . . . . . . 
. . . . . . . . . . . . . . . . . . . . . . . . . . . . . . 
. . . . . . . . . . . . . . . . . . . . . . . . . . . . . . 
. . . . . . . . . . . . . . . . . . . . . . . . . . . . . . 
. . . . . . . . . . . . . . . . . . . . . . . . . . . . . . 
. . . . . . . . . . . . . . . . . . . . . . . . . . . . . . 
. . . . . . . . . . . . . . . . . . . . . . . . . . . . . . 
. . . . . . . . . . . . . . . . . . . . . . . . . . . . . . 
. . . . . . . . . . . . . . . . . . . . . . . . . . . . . . 
. . . . . . . . . . . . . . . . . . . . . . . . . . . . . . 

Probabilities:
 0.21  0.21  0.21  0.21  0.21  0.21  0.21  0.21  0.21  0.21  0.21  0.21  0.21  0.21  0.21  0.21  0.21  0.21  0.21  0.21  0.21  0.21  0.21  0.21  0.21  0.21  0.21  0.21  0.21  0.21 
 0.21  0.21  0.21  0.21  0.21  0.21  0.21  0.21  0.21  0.21  0.21  0.21  0.21  0.21  0.21  0.21  0.21  0.21  0.21  0.21  0.21  0.21  0.21  0.21  0.21  0.21  0.21  0.21  0.21  0.21 
 0.21  0.21  0.21  0.21  0.21  0.21  0.21  0.21  0.21  0.21  0.21  0.21  0.21  0.21  0.21  0.21  0.21  0.21  0.21  0.21  0.21  0.21  0.21  0.21  0.21  0.21  0.21  0.21  0.21  0.21 
 0.21  0.21  0.21  0.21  0.21  0.21  0.21  0.21  0.21  0.21  0.21  0.21  0.21  0.21  0.21  0.21  0.21  0.21  0.21  0.21  0.21  0.21  0.21  0.21  0.21  0.21  0.21  0.21  0.21  0.21 
 0.21  0.21  0.21  0.21  0.21  0.21  0.21  0.21  0.21  0.21  0.21  0.21  0.21  0.21  0.21  0.21  0.21  0.21  0.21  0.21  0.21  0.21  0.21  0.21  0.21  0.21  0.21  0.21  0.21  0.21 
 0.21  0.21  0.21  0.21  0.21  0.21  0.21  0.21  0.21  0.21  0.21  0.21  0.21  0.21  0.21  0.21  0.21  0.21  0.21  0.21  0.21  0.21  0.21  0.21  0.21  0.21  0.21  0.21  0.21  0.21 
 0.21  0.21  0.21  0.21  0.21  0.21  0.21  0.21  0.21  0.21  0.21  0.21  0.21  0.21  0.21  0.21  0.21  0.21  0.21  0.21  0.21  0.21  0.21  0.21  0.21  0.21  0.21  0.21  0.21  0.21 
 0.21  0.21  0.21  0.21  0.21  0.21  0.21  0.21  0.21  0.21  0.21  0.21  0.21  0.21  0.21  0.21  0.21  0.21  0.21  0.21  0.21  0.21  0.21  0.21  0.21  0.21  0.21  0.21  0.21  0.21 
 0.21  0.21  0.21  0.21  0.21  0.21  0.21  0.21  0.21  0.21  0.21  0.21  0.21  0.21  0.21  0.21  0.21  0.21  0.21  0.21  0.21  0.21  0.21  0.21  0.21  0.21  0.21  0.21  0.21  0.21 
 0.21  0.21  0.21  0.21  0.21  0.21  0.21  0.21  0.21  0.21  0.21  0.21  0.21  0.21  0.21  0.21  0.21  0.21  0.21  0.21  0.21  0.21  0.21  0.21  0.21  0.21  0.21  0.21  0.21  0.21 
 0.21  0.21  0.21  0.21  0.21  0.21  0.21  0.21  0.21  0.21  0.21  0.21  0.21  0.21  0.21  0.21  0.21  0.21  0.21  0.21  0.21  0.21  0.21  0.21  0.21  0.21  0.21  0.21  0.21  0.21 
 0.21  0.21  0.21  0.21  0.21  0.21  0.21  0.21  0.21  0.21  0.21  0.21  0.21  0.21  0.21  0.21  0.21  0.21  0.21  0.21  0.21  0.21  0.21  0.21  0.21  0.21  0.21  0.21  0.21  0.21 
 0.21  0.21  0.21  0.21  0.21  0.21  0.21  0.21  0.21  0.21  0.21  0.21  0.21  0.21  0.21  0.21  0.21  0.21  0.21  0.21  0.21  0.21  0.21  0.21  0.21  0.21  0.21  0.21  0.21  0.21 
 0.21  0.21  0.21  0.21  0.21  0.21  0.21  0.21  0.21  0.21  0.21  0.21  0.21  0.21  0.21  0.21  0.21  0.21  0.21  0.21  0.21  0.21  0.21  0.21  0.21  0.21  0.21  0.21  0.21  0.21 
 0.21  0.21  0.21  0.21  0.21  0.21  0.21  0.21  0.21  0.21  0.21  0.21  0.21  0.21  0.21  0.21  0.21  0.21  0.21  0.21  0.21  0.21  0.21  0.21  0.21  0.21  0.21  0.21  0.21  0.21 
 0.21  0.21  0.21  0.21  0.21  0.21  0.21  0.21  0.21  0.21  0.21  0.21  0.21  0.21  0.21  0.21  0.21  0.21  0.21  0.21  0.21  0.21  0.21  0.21  0.21  0.21  0.21  0.21  0.21  0.21 

