remaining unclicked=478
remaining mines=99
Printing board: w=30 h=16
1 . 1 . . . . . . . . . . . . . . . . . . . . . . . . . . . 
. . . . . . . . . . . . . . . . . . . . . . . . . . . . . . 
. . . . . . . . . . . . . . . . . . . . . . . . . . . . . . 
. . . . . . . . . . . . . . . . . . . . . . . . . . . . . . 
. . . . . . . . . . . . . . . . . . . . . . . . . . . . . . 
. . . . . . . . . . . . . . . . . . . . . . . . . . . . . . 
. . . . . . . . . . . . . . . . . . . . . . . . . . . . . . 
. . . . . . . . . . . . . . . . . . . . . . . . . . . . . . 
. . . . . . . . . . . . . . . . . . . . . . . . . . . . . . 
. . . . . . . . . . . . . . . . . . . . . . . . . . . . . . 
. . . . . . . . . . . . . . . . . . . . . . . . . . . . . . 
. . . . . . . . . . . . . . . . . . . . . . . . . . . . . . 
. . . . . . . . . . . . . . . . . . . . . . . . . . . . . . 
. . . . . . . . . . . . . . . . . . . . . . . . . . . . . . 
. . . . . . . . . . . . . . . . . . . . . . . . . . . . . . 
. . . . . . . . . . . . . . . . . . . . . . . . . . . . . . 

Probabilities:
-1.00  0.33 -1.00  0.20  0.21  0.21  0.21  0.21  0.21  0.21  0.21  0.21  0.21  0.21  0.21  0.21  0.21  0.21  0.21  0.21  0.21  0.21  0.21  0.21  0.21  0.21  0.21  0.21  0.21  0.21 
 0.33  0.33  0.20  0.20  0.21  0.21  0.21  0.21  0.21  0.21  0.21  0.21  0.21  0.21  0.21  0.21  0.21  0.21  0.21  0.21  0.21  0.21  0.21  0.21  0.21  0.21  0.21  0.21  0.21  0.21 
 0.21  0.21  0.21  0.21  0.21  0.21  0.21  0.21  0.21  0.21  0.21  0.21  0.21  0.21  0.21  0.21  0.21  0.21  0.21  0.21  0.21  0.21  0.21  0.21  0.21  0.21  0.21  0.21  0.21  0.21 
 0.21  0.21  0.21  0.21  0.21  0.21  0.21  0.21  0.21  0.21  0.21  0.21  0.21  0.21  0.21  0.21  0.21  0.21  0.21  0.21  0.21  0.21  0.21  0.21  0.21  0.21  0.21  0.21  0.21  0.21 
 0.21  0.21  0.21  0.21  0.21  0.21  0.21  0.21  0.21  0.21  0.21  0.21  0.21  0.21  0.21  0.21  0.21  0.21  0.21  0.21  0.21  0.21  0.21  0.21  0.21  0.21  0.21  0.21  0.21  0.21 
 0.21  0.21  0.21  0.21  0.21  0.21  0.21  0.21  0.21  0.21  0.21  0.21  0.21  0.21  0.21  0.21  0.21  0.21  0.21  0.21  0.21  0.21  0.21  0.21  0.21  0.21  0.21  0.21  0.21  0.21 
 0.21  0.21  0.21  0.21  0.21  0.21  0.21  0.21  0.21  0.21  0.21  0.21  0.21  0.21  0.21  0.21  0.21  0.21  0.21  0.21  0.21  0.21  0.21  0.21  0.21  0.21  0.21  0.21  0.21  0.21 
 0.21  0.21  0.21  0.21  0.21  0.21  0.21  0.21  0.21  0.21  0.21  0.21  0.21  0.21  0.21  0.21  0.21  0.21  0.21  0.21  0.21  0.21  0.21  0.21  0.21  0.21  0.21  0.21  0.21  0.21 
 0.21  0.21  0.21  0.21  0.21  0.21  0.21  0.21  0.21  0.21  0.21  0.21  0.21  0.21  0.21  0.21  0.21  0.21  0.21  0.21  0.21  0.21  0.21  0.21  0.21  0.21  0.21  0.21  0.21  0.21 
 0.21  0.21  0.21  0.21  0.21  0.21  0.21  0.21  0.21  0.21  0.21  0.21  0.21  0.21  0.21  0.21  0.21  0.21  0.21  0.21  0.21  0.21  0.21  0.21  0.21  0.21  0.21  0.21  0.21  0.21 
 0.21  0.21  0.21  0.21  0.21  0.21  0.21  0.21  0.21  0.21  0.21  0.21  0.21  0.21  0.21  0.21  0.21  0.21  0.21  0.21  0.21  0.21  0.21  0.21  0.21  0.21  0.21  0.21  0.21  0.21 
 0.21  0.21  0.21  0.21  0.21  0.21  0.21  0.21  0.21  0.21  0.21  0.21  0.21  0.21  0.21  0.21  0.21  0.21  0.21  0.21  0.21  0.21  0.21  0.21  0.21  0.21  0.21  0.21  0.21  0.21 
 0.21  0.21  0.21  0.21  0.21  0.21  0.21  0.21  0.21  0.21  0.21  0.21  0.21  0.21  0.21  0.21  0.21  0.21  0.21  0.21  0.21  0.21  0.21  0.21  0.21  0.21  0.21  0.21  0.21  0.21 
 0.21  0.21  0.21  0.21  0.21  0.21  0.21  0.21  0.21  0.21  0.21  0.21  0.21  0.21  0.21  0.21  0.21  0.21  0.21  0.21  0.21  0.21  0.21  0.21  0.21  0.21  0.21  0.21  0.21  0.21 
 0.21  0.21  0.21  0.21  0.21  0.21  0.21  0.21  0.21  0.21  0.21  0.21  0.21  0.21  0.21  0.21  0.21  0.21  0.21  0.21  0.21  0.21  0.21  0.21  0.21  0.21  0.21  0.21  0.21  0.21 
 0.21  0.21  0.21  0.21  0.21  0.21  0.21  0.21  0.21  0.21  0.21  0.21  0.21  0.21  0.21  0.21  0.21  0.21  0.21  0.21  0.21  0.21  0.21  0.21  0.21  0.21  0.21  0.21  0.21  0.21 

